Time      Raw_Accelerometric_Data
0.0       blabla
0.0       blabla
0.0       blabla
0.0       blabla
0.0       blabla
0.0       blabla
0.0       blabla
0.0       blabla
0.0       blabla
0.0       blabla
0.0       blabla
0.0       blabla
0.0       blabla
0.0       blabla
0.0       blabla
0.0       blabla
0.0       blabla
0.0       blabla
0.0       blabla
0.0       blabla
0.0       blabla
0.0       blabla
0.0       blabla
0.0       blabla
1.0       blabla
1.0       blabla
1.0       blabla
1.0       blabla
1.0       blabla
1.0       blabla
1.0       blabla
1.0       blabla
1.0       blabla
1.0       blabla
1.0       blabla
1.0       blabla
1.0       blabla
1.0       blabla
1.0       blabla
1.0       blabla
1.0       blabla
1.0       blabla
1.0       blabla
1.0       blabla
1.0       blabla
1.0       blabla
1.0       blabla
1.0       blabla
1.0       blabla
1.0       blabla
1.0       blabla
1.0       blabla
1.0       blabla
1.0       blabla
1.0       blabla
1.0       blabla
2.0       blabla
2.0       blabla
2.0       blabla
2.0       blabla
2.0       blabla
2.0       blabla
2.0       blabla
2.0       blabla
2.0       blabla
2.0       blabla
2.0       blabla
2.0       blabla
2.0       blabla
2.0       blabla
2.0       blabla
2.0       blabla
2.0       blabla
2.0       blabla
2.0       blabla
2.0       blabla
2.0       blabla
2.0       blabla
2.0       blabla
2.0       blabla
2.0       blabla
2.0       blabla
2.0       blabla
2.0       blabla
2.0       blabla
2.0       blabla
2.0       blabla
2.0       blabla
